{
  "packages": [
    "packages/*"
  ],
  "version": "independent",
  "npmClient": "yarn",
  "useWorkspaces": true,
  "command": {
    "version": {
      "conventionalCommits": true,
      "message": "chore(release): publish",
      "allowBranch": ["main"]
    },
    "publish": {
      "registry": "https://gitlab.com/api/v4/projects/30840888/packages/npm/"
    }
  }
}
